Functions and utilities for tidy time series forecasting and time series cross-validation • tscv
…
split_frame <- make_split(
  main_frame = main_frame,
  context = context,
  type = "first",
  value = 2400,
  n_ahead = 24,
  n_skip = 23,
  n_lag = 0,
  mode = "slide",
  exceed = FALSE
)

split_frame
#> # A tibble: 1,262 × 4
#>    bidding_zone split train         test      
#>    <chr>        <int> <list>        <list>    
#>  1 DE               1 <int [2,400]> <int [24]>
#>  2 DE               2 <int [2,400]> <int [24]>
#>  3 DE               3 <int [2,400]> <int [24]>
#>  4 DE               4 <int [2,400]> <int [24]>
#>  5 DE               5 <int [2,400]> <int [24]>
#>  6 DE               6 <int [2,400]> <int [24]>
#>  7 DE               7 <int [2,400]> <int [24]>
#>  8 DE               8 <int [2,400]> <int [24]>
#>  9 DE               9 <int [2,400]> <int [24]>
#> 10 DE              10 <int [2,400]> <int [24]>
#> # ℹ 1,252 more rows
…
