Time Series Cross Validation with M4 Monthly Data • tscv
…
context <- list(
  series_id = series_id,
  value_id = value_id,
  index_id = index_id
)

# Prepare data set
main_frame <- M4_monthly_data |>
  filter(series %in% c("M10960", "M23100"))

main_frame
#> # A tibble: 492 × 4
#>       index series category value
#>       <mth> <chr>  <chr>    <dbl>
#>  1 1990 Jan M10960 Micro     2040
#>  2 1990 Feb M10960 Micro     1977
#>  3 1990 Mar M10960 Micro     1966
#>  4 1990 Apr M10960 Micro     1955
#>  5 1990 May M10960 Micro     1959
#>  6 1990 Jun M10960 Micro     1979
#>  7 1990 Jul M10960 Micro     2015
#>  8 1990 Aug M10960 Micro     2011
#>  9 1990 Sep M10960 Micro     2007
#> 10 1990 Oct M10960 Micro     2037
#> # ℹ 482 more rows
…
SMEDIAN: seasonal median model with yearly
seasonality

The function SMEDIAN() is an extension to the
fable package.

# Slice training data from main_frame according to split_frame
train_frame <- slice_train(
  main_frame = main_frame,
  split_frame = split_frame,
  context = context
  )

train_frame
#> # A tibble: 1,560 × 5
#>       index series category value split
#>       <mth> <chr>  <chr>    <dbl> <int>
#>  1 1990 Jan M10960 Micro     2040     1
#>  2 1990 Feb M10960 Micro     1977     1
#>  3 1990 Mar M10960 Micro     1966     1
#>  4 1990 Apr M10960 Micro     1955     1
#>  5 1990 May M10960 Micro     1959     1
#>  6 1990 Jun M10960 Micro     1979     1
#>  7 1990 Jul M10960 Micro     2015     1
#>  8 1990 Aug M10960 Micro     2011     1
#>  9 1990 Sep M10960 Micro     2007     1
#> 10 1990 Oct M10960 Micro     2037     1
#> # ℹ 1,550 more rows

# Convert tibble to tsibble
train_frame <- train_frame |>
  as_tsibble(
    index = index,
    key = c(series, split)
    )

train_frame
#> # A tsibble: 1,560 x 5 [1M]
#> # Key:       series, split [13]
#>       index series category value split
#>       <mth> <chr>  <chr>    <dbl> <int>
#>  1 1990 Jan M10960 Micro     2040     1
#>  2 1990 Feb M10960 Micro     1977     1
#>  3 1990 Mar M10960 Micro     1966     1
#>  4 1990 Apr M10960 Micro     1955     1
#>  5 1990 May M10960 Micro     1959     1
#>  6 1990 Jun M10960 Micro     1979     1
#>  7 1990 Jul M10960 Micro     2015     1
#>  8 1990 Aug M10960 Micro     2011     1
#>  9 1990 Sep M10960 Micro     2007     1
#> 10 1990 Oct M10960 Micro     2037     1
#> # ℹ 1,550 more rows
…
# Forecasting via fabletools::forecast()
fable_frame <- model_frame |>
  forecast(h = n_ahead)

fable_frame
#> # A fable: 1,404 x 6 [1M]
#> # Key:     series, split, .model [78]
#>    series split .model    index
#>    <chr>  <int> <chr>     <mth>
#>  1 M10960     1 NAIVE  2000 Jan
#>  2 M10960     1 NAIVE  2000 Feb
#>  3 M10960     1 NAIVE  2000 Mar
#>  4 M10960     1 NAIVE  2000 Apr
#>  5 M10960     1 NAIVE  2000 May
#>  6 M10960     1 NAIVE  2000 Jun
#>  7 M10960     1 NAIVE  2000 Jul
#>  8 M10960     1 NAIVE  2000 Aug
#>  9 M10960     1 NAIVE  2000 Sep
#> 10 M10960     1 NAIVE  2000 Oct
#> # ℹ 1,394 more rows
#> # ℹ 2 more variables: value <dist>, .mean <dbl>

# Convert fable_frame (fable) to future_frame (tibble)
future_frame <- make_future(
  fable = fable_frame,
  context = context
  )

future_frame
#> # A tibble: 1,404 × 6
#>       index series model split horizon point
#>       <mth> <chr>  <chr> <int>   <int> <dbl>
#>  1 2000 Jan M10960 NAIVE     1       1  2258
#>  2 2000 Feb M10960 NAIVE     1       2  2258
#>  3 2000 Mar M10960 NAIVE     1       3  2258
#>  4 2000 Apr M10960 NAIVE     1       4  2258
#>  5 2000 May M10960 NAIVE     1       5  2258
#>  6 2000 Jun M10960 NAIVE     1       6  2258
#>  7 2000 Jul M10960 NAIVE     1       7  2258
#>  8 2000 Aug M10960 NAIVE     1       8  2258
#>  9 2000 Sep M10960 NAIVE     1       9  2258
#> 10 2000 Oct M10960 NAIVE     1      10  2258
#> # ℹ 1,394 more rows
…
rMAE: relative mean absolute error (relative to some
user-defined benchmark method)

Forecast accuracy by forecast horizon

# Estimate accuracy metrics by forecast horizon
accuracy_horizon <- make_accuracy(
  future_frame = future_frame,
  main_frame = main_frame,
  context = context,
  dimension = "horizon"
)

accuracy_horizon
#> # A tibble: 1,512 × 6
#>    series model dimension     n metric value
#>    <chr>  <chr> <chr>     <int> <chr>  <dbl>
#>  1 M10960 ARIMA horizon       1 MAE     10.4
#>  2 M10960 ARIMA horizon       2 MAE     10.8
#>  3 M10960 ARIMA horizon       3 MAE     12.8
#>  4 M10960 ARIMA horizon       4 MAE     20.2
#>  5 M10960 ARIMA horizon       5 MAE     23.9
#>  6 M10960 ARIMA horizon       6 MAE     27.3
#>  7 M10960 ARIMA horizon       7 MAE     30.3
#>  8 M10960 ARIMA horizon       8 MAE     28.9
#>  9 M10960 ARIMA horizon       9 MAE     30.5
#> 10 M10960 ARIMA horizon      10 MAE     32.6
#> # ℹ 1,502 more rows
…
Forecast accuracy by split

# Estimate accuracy metrics by split
accuracy_split <- make_accuracy(
  future_frame = future_frame,
  main_frame = main_frame,
  context = context,
  dimension = "split"
)

accuracy_split
#> # A tibble: 546 × 6
#>    series model dimension     n metric value
#>    <chr>  <chr> <chr>     <int> <chr>  <dbl>
#>  1 M10960 ARIMA split         1 MAE     9.97
#>  2 M10960 ARIMA split         2 MAE    97.4 
#>  3 M10960 ARIMA split         3 MAE    42.3 
#>  4 M10960 ARIMA split         4 MAE    24.0 
#>  5 M10960 ARIMA split         5 MAE    11.4 
#>  6 M10960 ARIMA split         6 MAE    37.8 
#>  7 M10960 ARIMA split         7 MAE    21.0 
#>  8 M10960 ARIMA split         8 MAE    34.9 
#>  9 M10960 ARIMA split         9 MAE    34.0 
#> 10 M10960 ARIMA split        10 MAE    28.3 
#> # ℹ 536 more rows
…
