…
context <- list(
  series_id = series_id,
  value_id = value_id,
  index_id = index_id
)

# Prepare data set
main_frame <- elec_price %>%
  filter(bidding_zone %in% c("DE", "FR", "NO1", "SE1"))

main_frame
#> # A tibble: 70,176 × 5
#>    time                item            unit      bidding_zone  value
#>    <dttm>              <chr>           <chr>     <chr>         <dbl>
#>  1 2019-01-01 00:00:00 Day-ahead Price [EUR/MWh] DE            10.1 
#>  2 2019-01-01 01:00:00 Day-ahead Price [EUR/MWh] DE            -4.08
#>  3 2019-01-01 02:00:00 Day-ahead Price [EUR/MWh] DE            -9.91
#>  4 2019-01-01 03:00:00 Day-ahead Price [EUR/MWh] DE            -7.41
#>  5 2019-01-01 04:00:00 Day-ahead Price [EUR/MWh] DE           -12.6 
#>  6 2019-01-01 05:00:00 Day-ahead Price [EUR/MWh] DE           -17.2 
#>  7 2019-01-01 06:00:00 Day-ahead Price [EUR/MWh] DE           -15.1 
#>  8 2019-01-01 07:00:00 Day-ahead Price [EUR/MWh] DE            -4.93
#>  9 2019-01-01 08:00:00 Day-ahead Price [EUR/MWh] DE            -6.33
#> 10 2019-01-01 09:00:00 Day-ahead Price [EUR/MWh] DE            -4.93
#> # ℹ 70,166 more rows
…
# For illustration, only the first 50 splits are used
split_frame <- split_frame %>%
  filter(split %in% c(1:50))

split_frame
#> # A tibble: 200 × 4
#>    bidding_zone split train         test      
#>    <chr>        <int> <list>        <list>    
#>  1 DE               1 <int [2,400]> <int [24]>
#>  2 DE               2 <int [2,400]> <int [24]>
#>  3 DE               3 <int [2,400]> <int [24]>
#>  4 DE               4 <int [2,400]> <int [24]>
#>  5 DE               5 <int [2,400]> <int [24]>
#>  6 DE               6 <int [2,400]> <int [24]>
#>  7 DE               7 <int [2,400]> <int [24]>
#>  8 DE               8 <int [2,400]> <int [24]>
#>  9 DE               9 <int [2,400]> <int [24]>
#> 10 DE              10 <int [2,400]> <int [24]>
#> # ℹ 190 more rows
```
…
``` r

# Slice training data from main_frame according to split_frame
train_frame <- slice_train(
  main_frame = main_frame,
  split_frame = split_frame,
  context = context
  )

train_frame
#> # A tibble: 480,000 × 6
#>    time                item            unit      bidding_zone  value split
#>    <dttm>              <chr>           <chr>     <chr>         <dbl> <int>
#>  1 2019-01-01 00:00:00 Day-ahead Price [EUR/MWh] DE            10.1      1
#>  2 2019-01-01 01:00:00 Day-ahead Price [EUR/MWh] DE            -4.08     1
#>  3 2019-01-01 02:00:00 Day-ahead Price [EUR/MWh] DE            -9.91     1
#>  4 2019-01-01 03:00:00 Day-ahead Price [EUR/MWh] DE            -7.41     1
#>  5 2019-01-01 04:00:00 Day-ahead Price [EUR/MWh] DE           -12.6      1
#>  6 2019-01-01 05:00:00 Day-ahead Price [EUR/MWh] DE           -17.2      1
#>  7 2019-01-01 06:00:00 Day-ahead Price [EUR/MWh] DE           -15.1      1
#>  8 2019-01-01 07:00:00 Day-ahead Price [EUR/MWh] DE            -4.93     1
#>  9 2019-01-01 08:00:00 Day-ahead Price [EUR/MWh] DE            -6.33     1
#> 10 2019-01-01 09:00:00 Day-ahead Price [EUR/MWh] DE            -4.93     1
#> # ℹ 479,990 more rows

# Convert tibble to tsibble
train_frame <- train_frame %>%
  as_tsibble(
    index = time,
    key = c(bidding_zone, split)
    )

train_frame
#> # A tsibble: 480,000 x 6 [1h] <UTC>
#> # Key:       bidding_zone, split [200]
#>    time                item            unit      bidding_zone  value split
#>    <dttm>              <chr>           <chr>     <chr>         <dbl> <int>
#>  1 2019-01-01 00:00:00 Day-ahead Price [EUR/MWh] DE            10.1      1
#>  2 2019-01-01 01:00:00 Day-ahead Price [EUR/MWh] DE            -4.08     1
#>  3 2019-01-01 02:00:00 Day-ahead Price [EUR/MWh] DE            -9.91     1
#>  4 2019-01-01 03:00:00 Day-ahead Price [EUR/MWh] DE            -7.41     1
#>  5 2019-01-01 04:00:00 Day-ahead Price [EUR/MWh] DE           -12.6      1
#>  6 2019-01-01 05:00:00 Day-ahead Price [EUR/MWh] DE           -17.2      1
#>  7 2019-01-01 06:00:00 Day-ahead Price [EUR/MWh] DE           -15.1      1
#>  8 2019-01-01 07:00:00 Day-ahead Price [EUR/MWh] DE            -4.93     1
#>  9 2019-01-01 08:00:00 Day-ahead Price [EUR/MWh] DE            -6.33     1
#> 10 2019-01-01 09:00:00 Day-ahead Price [EUR/MWh] DE            -4.93     1
#> # ℹ 479,990 more rows

# Model training via fabletools::model()
model_frame <- train_frame %>%
  model(
    "SNAIVE" = SNAIVE(value ~ lag("week")),
    "STL-NAIVE" = decomposition_model(STL(value), NAIVE(season_adjust)),
    "SNAIVE2" = SNAIVE2(value),
    "SMEDIAN" = SMEDIAN(value ~ lag("week"))
    )

model_frame
#> # A mable: 200 x 6
#> # Key:     bidding_zone, split [200]
#>    bidding_zone split   SNAIVE               `STL-NAIVE`   SNAIVE2   SMEDIAN
#>    <chr>        <int>  <model>                   <model>   <model>   <model>
#>  1 DE               1 <SNAIVE> <STL decomposition model> <SNAIVE2> <SMEDIAN>
#>  2 DE               2 <SNAIVE> <STL decomposition model> <SNAIVE2> <SMEDIAN>
#>  3 DE               3 <SNAIVE> <STL decomposition model> <SNAIVE2> <SMEDIAN>
#>  4 DE               4 <SNAIVE> <STL decomposition model> <SNAIVE2> <SMEDIAN>
#>  5 DE               5 <SNAIVE> <STL decomposition model> <SNAIVE2> <SMEDIAN>
#>  6 DE               6 <SNAIVE> <STL decomposition model> <SNAIVE2> <SMEDIAN>
#>  7 DE               7 <SNAIVE> <STL decomposition model> <SNAIVE2> <SMEDIAN>
#>  8 DE               8 <SNAIVE> <STL decomposition model> <SNAIVE2> <SMEDIAN>
#>  9 DE               9 <SNAIVE> <STL decomposition model> <SNAIVE2> <SMEDIAN>
#> 10 DE              10 <SNAIVE> <STL decomposition model> <SNAIVE2> <SMEDIAN>
#> # ℹ 190 more rows

# Forecasting via fabletools::forecast()
fable_frame <- model_frame %>%
  forecast(h = n_ahead)

fable_frame
#> # A fable: 19,200 x 6 [1h] <UTC>
#> # Key:     bidding_zone, split, .model [800]
#>    bidding_zone split .model time               
#>    <chr>        <int> <chr>  <dttm>             
#>  1 DE               1 SNAIVE 2019-04-11 00:00:00
#>  2 DE               1 SNAIVE 2019-04-11 01:00:00
#>  3 DE               1 SNAIVE 2019-04-11 02:00:00
#>  4 DE               1 SNAIVE 2019-04-11 03:00:00
#>  5 DE               1 SNAIVE 2019-04-11 04:00:00
#>  6 DE               1 SNAIVE 2019-04-11 05:00:00
#>  7 DE               1 SNAIVE 2019-04-11 06:00:00
#>  8 DE               1 SNAIVE 2019-04-11 07:00:00
#>  9 DE               1 SNAIVE 2019-04-11 08:00:00
#> 10 DE               1 SNAIVE 2019-04-11 09:00:00
#> # ℹ 19,190 more rows
#> # ℹ 2 more variables: value <dist>, .mean <dbl>

# Convert fable_frame (fable) to future_frame (tibble)
future_frame <- make_future(
  fable = fable_frame,
  context = context
  )

future_frame
#> # A tibble: 19,200 × 6
#>    time                bidding_zone model  split horizon point
#>    <dttm>              <chr>        <chr>  <int>   <int> <dbl>
#>  1 2019-04-11 00:00:00 DE           SNAIVE     1       1  33  
#>  2 2019-04-11 01:00:00 DE           SNAIVE     1       2  32.6
#>  3 2019-04-11 02:00:00 DE           SNAIVE     1       3  34.1
#>  4 2019-04-11 03:00:00 DE           SNAIVE     1       4  36.9
#>  5 2019-04-11 04:00:00 DE           SNAIVE     1       5  44.7
#>  6 2019-04-11 05:00:00 DE           SNAIVE     1       6  53.6
#>  7 2019-04-11 06:00:00 DE           SNAIVE     1       7  59.9
#>  8 2019-04-11 07:00:00 DE           SNAIVE     1       8  46.9
#>  9 2019-04-11 08:00:00 DE           SNAIVE     1       9  48  
#> 10 2019-04-11 09:00:00 DE           SNAIVE     1      10  47  
#> # ℹ 19,190 more rows
```
…
``` r

# Estimate accuracy metrics by forecast horizon
accuracy_horizon <- make_accuracy(
  future_frame = future_frame,
  main_frame = main_frame,
  context = context,
  dimension = "horizon"
)

accuracy_horizon
#> # A tibble: 2,688 × 6
#>    bidding_zone model   dimension     n metric value
#>    <chr>        <chr>   <chr>     <int> <chr>  <dbl>
#>  1 DE           SMEDIAN horizon       1 MAE     4.84
#>  2 DE           SMEDIAN horizon       2 MAE     5.05
#>  3 DE           SMEDIAN horizon       3 MAE     4.85
#>  4 DE           SMEDIAN horizon       4 MAE     4.50
#>  5 DE           SMEDIAN horizon       5 MAE     6.73
#>  6 DE           SMEDIAN horizon       6 MAE     6.66
#>  7 DE           SMEDIAN horizon       7 MAE     6.40
#>  8 DE           SMEDIAN horizon       8 MAE     6.73
#>  9 DE           SMEDIAN horizon       9 MAE     7.38
#> 10 DE           SMEDIAN horizon      10 MAE     9.06
#> # ℹ 2,678 more rows
…
``` r

# Estimate accuracy metrics by forecast horizon
accuracy_split <- make_accuracy(
  future_frame = future_frame,
  main_frame = main_frame,
  context = context,
  dimension = "split"
)

accuracy_split
#> # A tibble: 5,600 × 6
#>    bidding_zone model   dimension     n metric value
#>    <chr>        <chr>   <chr>     <int> <chr>  <dbl>
#>  1 DE           SMEDIAN split         1 MAE     2.80
#>  2 DE           SMEDIAN split         2 MAE     3.74
#>  3 DE           SMEDIAN split         3 MAE     2.70
#>  4 DE           SMEDIAN split         4 MAE     2.53
#>  5 DE           SMEDIAN split         5 MAE     4.54
#>  6 DE           SMEDIAN split         6 MAE     3.78
#>  7 DE           SMEDIAN split         7 MAE     4.38
#>  8 DE           SMEDIAN split         8 MAE     4.87
#>  9 DE           SMEDIAN split         9 MAE    11.5 
#> 10 DE           SMEDIAN split        10 MAE     5.02
#> # ℹ 5,590 more rows
…
