…
context <- list(
  series_id = series_id,
  value_id = value_id,
  index_id = index_id
)

# Prepare data set
main_frame <- elec_price %>%
  filter(bidding_zone %in% c("DE", "FR", "NO1", "SE1"))

main_frame
#> # A tibble: 70,176 × 5
#>    time                item            unit      bidding_zone  value
#>    <dttm>              <chr>           <chr>     <chr>         <dbl>
#>  1 2019-01-01 00:00:00 Day-ahead Price [EUR/MWh] DE            10.1 
#>  2 2019-01-01 01:00:00 Day-ahead Price [EUR/MWh] DE            -4.08
#>  3 2019-01-01 02:00:00 Day-ahead Price [EUR/MWh] DE            -9.91
#>  4 2019-01-01 03:00:00 Day-ahead Price [EUR/MWh] DE            -7.41
#>  5 2019-01-01 04:00:00 Day-ahead Price [EUR/MWh] DE           -12.6 
#>  6 2019-01-01 05:00:00 Day-ahead Price [EUR/MWh] DE           -17.2 
#>  7 2019-01-01 06:00:00 Day-ahead Price [EUR/MWh] DE           -15.1 
#>  8 2019-01-01 07:00:00 Day-ahead Price [EUR/MWh] DE            -4.93
#>  9 2019-01-01 08:00:00 Day-ahead Price [EUR/MWh] DE            -6.33
#> 10 2019-01-01 09:00:00 Day-ahead Price [EUR/MWh] DE            -4.93
#> # ℹ 70,166 more rows
```
…
First, we estimate the sample partial autocorrelation function using
[`estimate_pacf()`](https://ahaeusser.github.io/tscv/reference/estimate_pacf.md).
The argument `lag_max = 30` computes the partial autocorrelation for
lags 1 to 30.

``` r
# Estimate sample partial autocorrelation function
corr_pacf <- estimate_pacf(
  .data = main_frame,
  context = context,
  lag_max = 30
)

corr_pacf
#> # A tibble: 120 × 6
#>    bidding_zone type    lag    value  bound sign 
#>    <chr>        <chr> <int>    <dbl>  <dbl> <lgl>
#>  1 DE           PACF      1  0.948   0.0124 TRUE 
#>  2 DE           PACF      2 -0.437   0.0124 TRUE 
#>  3 DE           PACF      3  0.00539 0.0124 FALSE
#>  4 DE           PACF      4  0.0735  0.0124 TRUE 
#>  5 DE           PACF      5  0.0735  0.0124 TRUE 
#>  6 DE           PACF      6  0.0898  0.0124 TRUE 
#>  7 DE           PACF      7  0.119   0.0124 TRUE 
#>  8 DE           PACF      8  0.0786  0.0124 TRUE 
#>  9 DE           PACF      9  0.0820  0.0124 TRUE 
#> 10 DE           PACF     10  0.0469  0.0124 TRUE 
#> # ℹ 110 more rows
…
