Expanding window approach • tscv
…
context <- list(
  series_id = series_id,
  value_id = value_id,
  index_id = index_id
)

# Prepare data set
main_frame <- M4_monthly_data |>
  filter(series %in% c("M23100", "M14395"))

main_frame
#> # A tibble: 354 × 4
#>       index series category value
#>       <mth> <chr>  <chr>    <dbl>
#>  1 2001 Jul M14395 Micro    1116.
#>  2 2001 Aug M14395 Micro    1079.
#>  3 2001 Sep M14395 Micro     917.
#>  4 2001 Oct M14395 Micro     982.
#>  5 2001 Nov M14395 Micro     946.
#>  6 2001 Dec M14395 Micro     586.
#>  7 2002 Jan M14395 Micro     710.
#>  8 2002 Feb M14395 Micro     714.
#>  9 2002 Mar M14395 Micro     675 
#> 10 2002 Apr M14395 Micro    1068.
#> # ℹ 344 more rows
…
ARIMA: automatic ARIMA model

These models are estimated separately for each time series and each
split.

# Slice training data from main_frame according to split_frame
train_frame <- slice_train(
  main_frame = main_frame,
  split_frame = split_frame,
  context = context
)

train_frame
#> # A tibble: 672 × 5
#>       index series category value split
#>       <mth> <chr>  <chr>    <dbl> <int>
#>  1 2001 Jul M14395 Micro    1116.     1
#>  2 2001 Aug M14395 Micro    1079.     1
#>  3 2001 Sep M14395 Micro     917.     1
#>  4 2001 Oct M14395 Micro     982.     1
#>  5 2001 Nov M14395 Micro     946.     1
#>  6 2001 Dec M14395 Micro     586.     1
#>  7 2002 Jan M14395 Micro     710.     1
#>  8 2002 Feb M14395 Micro     714.     1
#>  9 2002 Mar M14395 Micro     675      1
#> 10 2002 Apr M14395 Micro    1068.     1
#> # ℹ 662 more rows

# Slice test data from main_frame according to split_frame
test_frame <- slice_test(
  main_frame = main_frame,
  split_frame = split_frame,
  context = context
)

test_frame
#> # A tibble: 90 × 5
#>       index series category value split
#>       <mth> <chr>  <chr>    <dbl> <int>
#>  1 2011 Jul M14395 Micro    1866.     1
#>  2 2011 Aug M14395 Micro    1833.     1
#>  3 2011 Sep M14395 Micro    1630.     1
#>  4 2011 Oct M14395 Micro    1659.     1
#>  5 2011 Nov M14395 Micro    1554.     1
#>  6 2011 Dec M14395 Micro    1018.     1
#>  7 2012 Jan M14395 Micro     717.     1
#>  8 2012 Feb M14395 Micro     958.     1
#>  9 2012 Mar M14395 Micro    1221.     1
#> 10 2012 Apr M14395 Micro     832.     1
#> # ℹ 80 more rows

# Convert tibble to tsibble
train_frame <- train_frame |>
  as_tsibble(
    index = index,
    key = c(series, split)
  )

train_frame
#> # A tsibble: 672 x 5 [1M]
#> # Key:       series, split [5]
#>       index series category value split
#>       <mth> <chr>  <chr>    <dbl> <int>
#>  1 2001 Jul M14395 Micro    1116.     1
#>  2 2001 Aug M14395 Micro    1079.     1
#>  3 2001 Sep M14395 Micro     917.     1
#>  4 2001 Oct M14395 Micro     982.     1
#>  5 2001 Nov M14395 Micro     946.     1
#>  6 2001 Dec M14395 Micro     586.     1
#>  7 2002 Jan M14395 Micro     710.     1
#>  8 2002 Feb M14395 Micro     714.     1
#>  9 2002 Mar M14395 Micro     675      1
#> 10 2002 Apr M14395 Micro    1068.     1
#> # ℹ 662 more rows
…
# Forecasting via fabletools::forecast()
fable_frame <- model_frame |>
  forecast(h = n_ahead)

fable_frame
#> # A fable: 270 x 6 [1M]
#> # Key:     series, split, .model [15]
#>    series split .model    index
#>    <chr>  <int> <chr>     <mth>
#>  1 M14395     1 SNAIVE 2011 Jul
#>  2 M14395     1 SNAIVE 2011 Aug
#>  3 M14395     1 SNAIVE 2011 Sep
#>  4 M14395     1 SNAIVE 2011 Oct
#>  5 M14395     1 SNAIVE 2011 Nov
#>  6 M14395     1 SNAIVE 2011 Dec
#>  7 M14395     1 SNAIVE 2012 Jan
#>  8 M14395     1 SNAIVE 2012 Feb
#>  9 M14395     1 SNAIVE 2012 Mar
#> 10 M14395     1 SNAIVE 2012 Apr
#> # ℹ 260 more rows
#> # ℹ 2 more variables: value <dist>, .mean <dbl>

# Convert fable_frame (fable) to future_frame (tibble)
future_frame <- make_future(
  fable = fable_frame,
  context = context
)

future_frame
#> # A tibble: 270 × 6
#>       index series model  split horizon point
#>       <mth> <chr>  <chr>  <int>   <int> <dbl>
#>  1 2011 Jul M14395 SNAIVE     1       1 2145.
#>  2 2011 Aug M14395 SNAIVE     1       2 2264.
#>  3 2011 Sep M14395 SNAIVE     1       3 3253 
#>  4 2011 Oct M14395 SNAIVE     1       4 2232.
#>  5 2011 Nov M14395 SNAIVE     1       5 1556.
#>  6 2011 Dec M14395 SNAIVE     1       6  915.
#>  7 2012 Jan M14395 SNAIVE     1       7  732.
#>  8 2012 Feb M14395 SNAIVE     1       8 1367 
#>  9 2012 Mar M14395 SNAIVE     1       9 1478.
#> 10 2012 Apr M14395 SNAIVE     1      10 1122.
#> # ℹ 260 more rows
…
plot_frame
#> # A tibble: 1,032 × 6
#>       index series model  split horizon point
#>       <mth> <chr>  <chr>  <int>   <int> <dbl>
#>  1 2001 Jul M14395 ACTUAL     1       0 1116.
#>  2 2001 Aug M14395 ACTUAL     1       0 1079.
#>  3 2001 Sep M14395 ACTUAL     1       0  917.
#>  4 2001 Oct M14395 ACTUAL     1       0  982.
#>  5 2001 Nov M14395 ACTUAL     1       0  946.
#>  6 2001 Dec M14395 ACTUAL     1       0  586.
#>  7 2002 Jan M14395 ACTUAL     1       0  710.
#>  8 2002 Feb M14395 ACTUAL     1       0  714.
#>  9 2002 Mar M14395 ACTUAL     1       0  675 
#> 10 2002 Apr M14395 ACTUAL     1       0 1068.
#> # ℹ 1,022 more rows
…
Forecast accuracy by forecast horizon

Accuracy by forecast horizon shows how forecast errors change as the
forecast horizon increases from 1 to 18 months ahead.

accuracy_horizon <- make_accuracy(
  future_frame = future_frame,
  main_frame = main_frame,
  context = context,
  dimension = "horizon"
)

accuracy_horizon |>
  filter(metric == "sMAPE")
#> # A tibble: 108 × 6
#>    series model dimension     n metric value
#>    <chr>  <chr> <chr>     <int> <chr>  <dbl>
#>  1 M14395 ARIMA horizon       1 sMAPE   15.7
#>  2 M14395 ARIMA horizon       2 sMAPE   11.2
#>  3 M14395 ARIMA horizon       3 sMAPE   28.8
#>  4 M14395 ARIMA horizon       4 sMAPE   26.2
#>  5 M14395 ARIMA horizon       5 sMAPE   18.9
#>  6 M14395 ARIMA horizon       6 sMAPE   17.1
#>  7 M14395 ARIMA horizon       7 sMAPE   19.7
#>  8 M14395 ARIMA horizon       8 sMAPE   35.8
#>  9 M14395 ARIMA horizon       9 sMAPE   19.2
#> 10 M14395 ARIMA horizon      10 sMAPE   30.9
#> # ℹ 98 more rows
…
