Check and prepare tsibble data — check_data • tscv
…
data <- M4_monthly_data |>
  filter(series %in% c("M23100", "M14395")) |>
  as_tsibble(
    index = index,
    key = series
  )

check_data(data)
#> # A tsibble: 372 x 4 [1M]
#> # Key:       series [2]
#>       index series category value
#>       <mth> <chr>  <chr>    <dbl>
#>  1 2001 Jul M14395 Micro    1116.
#>  2 2001 Aug M14395 Micro    1079.
#>  3 2001 Sep M14395 Micro     917.
#>  4 2001 Okt M14395 Micro     982.
#>  5 2001 Nov M14395 Micro     946.
#>  6 2001 Dez M14395 Micro     586.
#>  7 2002 Jan M14395 Micro     710.
#>  8 2002 Feb M14395 Micro     714.
#>  9 2002 Mrz M14395 Micro     675 
#> 10 2002 Apr M14395 Micro    1068.
#> # ℹ 362 more rows

wide_data <- data |>
  as_tibble() |>
  select(index, series, value) |>
  tidyr::pivot_wider(
    names_from = series,
    values_from = value
  ) |>
  as_tsibble(index = index)

check_data(wide_data)
#> # A tsibble: 372 x 3 [1M]
#> # Key:       variable [2]
#>       index variable value
#>       <mth> <chr>    <dbl>
#>  1 2001 Jul M14395   1116.
#>  2 2001 Jul M23100     NA 
#>  3 2001 Aug M14395   1079.
#>  4 2001 Aug M23100     NA 
#>  5 2001 Sep M14395    917.
#>  6 2001 Sep M23100     NA 
#>  7 2001 Okt M14395    982.
#>  8 2001 Okt M23100     NA 
#>  9 2001 Nov M14395    946.
#> 10 2001 Nov M23100     NA 
#> # ℹ 362 more rows
…
