…
context <- list(
  series_id = "series",
  value_id = "value",
  index_id = "index"
)

data <- M4_monthly_data |>
  filter(series %in% c("M23100", "M14395"))

estimate_pacf(
  .data = data,
  context = context,
  lag_max = 12
)
#> # A tibble: 24 × 6
#>    series type    lag   value bound sign 
#>    <chr>  <chr> <int>   <dbl> <dbl> <lgl>
#>  1 M14395 PACF      1  0.675  0.121 TRUE 
#>  2 M14395 PACF      2 -0.0826 0.121 FALSE
#>  3 M14395 PACF      3  0.0163 0.121 FALSE
#>  4 M14395 PACF      4 -0.0518 0.121 FALSE
#>  5 M14395 PACF      5  0.0515 0.121 FALSE
#>  6 M14395 PACF      6 -0.0321 0.121 FALSE
#>  7 M14395 PACF      7  0.0129 0.121 FALSE
#>  8 M14395 PACF      8  0.104  0.121 FALSE
#>  9 M14395 PACF      9  0.108  0.121 FALSE
#> 10 M14395 PACF     10  0.213  0.121 TRUE 
#> # ℹ 14 more rows
```
