…
future_frame <- make_future(
  fable = fable_frame,
  context = context
)

error_frame <- make_errors(
  future_frame = future_frame,
  main_frame = main_frame,
  context = context
)

error_frame
#> # A tibble: 90 × 6
#>    series model  split horizon    error pct_error
#>    <chr>  <chr>  <int>   <int>    <dbl>     <dbl>
#>  1 M14395 SNAIVE     1       1  -279.    -15.0   
#>  2 M14395 SNAIVE     1       2  -431.    -23.5   
#>  3 M14395 SNAIVE     1       3 -1624.    -99.6   
#>  4 M14395 SNAIVE     1       4  -573.    -34.5   
#>  5 M14395 SNAIVE     1       5    -1.10   -0.0708
#>  6 M14395 SNAIVE     1       6   103.     10.1   
#>  7 M14395 SNAIVE     1       7   -15.6    -2.18  
#>  8 M14395 SNAIVE     1       8  -409.    -42.8   
#>  9 M14395 SNAIVE     1       9  -257     -21.0   
#> 10 M14395 SNAIVE     1      10  -291.    -34.9   
#> # ℹ 80 more rows
```
