…
future_frame <- make_future(
  fable = fable_frame,
  context = context
)

accuracy_horizon <- make_accuracy(
  future_frame = future_frame,
  main_frame = main_frame,
  context = context,
  dimension = "horizon"
)

accuracy_horizon
#> # A tibble: 252 × 6
#>    series model  dimension     n metric value
#>    <chr>  <chr>  <chr>     <int> <chr>  <dbl>
#>  1 M14395 SNAIVE horizon       1 MAE    193. 
#>  2 M14395 SNAIVE horizon       2 MAE    289. 
#>  3 M14395 SNAIVE horizon       3 MAE    811. 
#>  4 M14395 SNAIVE horizon       4 MAE    653. 
#>  5 M14395 SNAIVE horizon       5 MAE     80.9
#>  6 M14395 SNAIVE horizon       6 MAE     90.4
#>  7 M14395 SNAIVE horizon       7 MAE     18.3
#>  8 M14395 SNAIVE horizon       8 MAE    487. 
#>  9 M14395 SNAIVE horizon       9 MAE    463. 
#> 10 M14395 SNAIVE horizon      10 MAE    185. 
#> # ℹ 242 more rows

accuracy_split <- make_accuracy(
  future_frame = future_frame,
  main_frame = main_frame,
  context = context,
  dimension = "split"
)

accuracy_split
#> # A tibble: 35 × 6
#>    series model  dimension     n metric  value
#>    <chr>  <chr>  <chr>     <int> <chr>   <dbl>
#>  1 M14395 SNAIVE split         1 MAE     489. 
#>  2 M14395 SNAIVE split         2 MAE     179. 
#>  3 M14395 SNAIVE split         3 MAE     499. 
#>  4 M14395 SNAIVE split         1 MAPE     36.8
#>  5 M14395 SNAIVE split         2 MAPE     13.8
#>  6 M14395 SNAIVE split         3 MAPE     24.2
#>  7 M14395 SNAIVE split         1 ME     -453. 
#>  8 M14395 SNAIVE split         2 ME       95.0
#>  9 M14395 SNAIVE split         3 ME      499. 
#> 10 M14395 SNAIVE split         1 MPE     -34.1
#> # ℹ 25 more rows
```
