…
main_frame <- M4_monthly_data |>
  filter(series %in% c("M23100", "M14395"))

tsibble_frame <- make_tsibble(
  main_frame = main_frame,
  context = context
)

tsibble_frame
#> # A tsibble: 354 x 4 [1M]
#> # Key:       series [2]
#>       index series category value
#>       <mth> <chr>  <chr>    <dbl>
#>  1 2001 Jul M14395 Micro    1116.
#>  2 2001 Aug M14395 Micro    1079.
#>  3 2001 Sep M14395 Micro     917.
#>  4 2001 Okt M14395 Micro     982.
#>  5 2001 Nov M14395 Micro     946.
#>  6 2001 Dez M14395 Micro     586.
#>  7 2002 Jan M14395 Micro     710.
#>  8 2002 Feb M14395 Micro     714.
#>  9 2002 Mrz M14395 Micro     675 
#> 10 2002 Apr M14395 Micro    1068.
#> # ℹ 344 more rows
```
