…
model_frame <- train_frame |>
  model(
    "SNAIVE" = SNAIVE(value ~ lag("year"))
  )

fable_frame <- model_frame |>
  forecast(h = 18)

future_frame <- make_future(
  fable = fable_frame,
  context = context
)

future_frame
#> # A tibble: 90 × 6
#>       index series model  split horizon point
#>       <mth> <chr>  <chr>  <int>   <int> <dbl>
#>  1 2011 Jul M14395 SNAIVE     1       1 2145.
#>  2 2011 Aug M14395 SNAIVE     1       2 2264.
#>  3 2011 Sep M14395 SNAIVE     1       3 3253 
#>  4 2011 Okt M14395 SNAIVE     1       4 2232.
#>  5 2011 Nov M14395 SNAIVE     1       5 1556.
#>  6 2011 Dez M14395 SNAIVE     1       6  915.
#>  7 2012 Jan M14395 SNAIVE     1       7  732.
#>  8 2012 Feb M14395 SNAIVE     1       8 1367 
#>  9 2012 Mrz M14395 SNAIVE     1       9 1478.
#> 10 2012 Apr M14395 SNAIVE     1      10 1122.
#> # ℹ 80 more rows
```
