…
train_frame <- slice_train(
  main_frame = main_frame,
  split_frame = split_frame,
  context = context
)

train_frame
#> # A tibble: 12,569,520 × 6
#>    time                item            unit      bidding_zone  value split
#>    <dttm>              <chr>           <chr>     <chr>         <dbl> <int>
#>  1 2019-01-01 00:00:00 Day-ahead Price [EUR/MWh] DE            10.1      1
#>  2 2019-01-01 01:00:00 Day-ahead Price [EUR/MWh] DE            -4.08     1
#>  3 2019-01-01 02:00:00 Day-ahead Price [EUR/MWh] DE            -9.91     1
#>  4 2019-01-01 03:00:00 Day-ahead Price [EUR/MWh] DE            -7.41     1
#>  5 2019-01-01 04:00:00 Day-ahead Price [EUR/MWh] DE           -12.6      1
#>  6 2019-01-01 05:00:00 Day-ahead Price [EUR/MWh] DE           -17.2      1
#>  7 2019-01-01 06:00:00 Day-ahead Price [EUR/MWh] DE           -15.1      1
#>  8 2019-01-01 07:00:00 Day-ahead Price [EUR/MWh] DE            -4.93     1
#>  9 2019-01-01 08:00:00 Day-ahead Price [EUR/MWh] DE            -6.33     1
#> 10 2019-01-01 09:00:00 Day-ahead Price [EUR/MWh] DE            -4.93     1
#> # ℹ 12,569,510 more rows
```
