Slice test data from a split frame — slice_test • tscv
…
test_frame <- slice_test(
  main_frame = main_frame,
  split_frame = split_frame,
  context = context
)

test_frame
#> # A tibble: 36 × 5
#>       index series category    value split
#>       <mth> <chr>  <chr>       <dbl> <int>
#>  1 2013 Jan M23100 Demographic  8940     1
#>  2 2013 Feb M23100 Demographic  8950     1
#>  3 2013 Mrz M23100 Demographic  9080     1
#>  4 2013 Apr M23100 Demographic  9270     1
#>  5 2013 Mai M23100 Demographic  9570     1
#>  6 2013 Jun M23100 Demographic  9610     1
#>  7 2013 Jul M23100 Demographic  9510     1
#>  8 2013 Aug M23100 Demographic  9550     1
#>  9 2013 Sep M23100 Demographic  9400     1
#> 10 2013 Okt M23100 Demographic  9310     1
#> # ℹ 26 more rows
…
