…
test_frame <- slice_test(
  main_frame = main_frame,
  split_frame = split_frame,
  context = context
)

test_frame
#> # A tibble: 30,288 × 6
#>    time                item            unit      bidding_zone value split
#>    <dttm>              <chr>           <chr>     <chr>        <dbl> <int>
#>  1 2019-04-11 00:00:00 Day-ahead Price [EUR/MWh] DE            37.1     1
#>  2 2019-04-11 01:00:00 Day-ahead Price [EUR/MWh] DE            36.5     1
#>  3 2019-04-11 02:00:00 Day-ahead Price [EUR/MWh] DE            37.1     1
#>  4 2019-04-11 03:00:00 Day-ahead Price [EUR/MWh] DE            38.9     1
#>  5 2019-04-11 04:00:00 Day-ahead Price [EUR/MWh] DE            47.9     1
#>  6 2019-04-11 05:00:00 Day-ahead Price [EUR/MWh] DE            56.4     1
#>  7 2019-04-11 06:00:00 Day-ahead Price [EUR/MWh] DE            59.2     1
#>  8 2019-04-11 07:00:00 Day-ahead Price [EUR/MWh] DE            51.7     1
#>  9 2019-04-11 08:00:00 Day-ahead Price [EUR/MWh] DE            48.6     1
#> 10 2019-04-11 09:00:00 Day-ahead Price [EUR/MWh] DE            46.0     1
#> # ℹ 30,278 more rows
```
